<svg width="1080" height="264" viewBox="0 0 1080 264" fill="none" xmlns="http://www.w3.org/2000/svg">
<g clip-path="url(#clip0)">
<path d="M93.9916 100.163C87.2757 100.163 81.8346 105.608 81.8346 112.32C81.8346 119.036 87.2798 124.477 93.9916 124.477C100.707 124.477 106.148 119.032 106.148 112.32C106.148 105.608 100.707 100.163 93.9916 100.163ZM90.0712 114.536C86.9924 114.536 84.501 112.041 84.501 108.966C84.501 105.887 86.9965 103.396 90.0712 103.396C93.15 103.396 95.6414 105.892 95.6414 108.966C95.6455 112.045 93.15 114.536 90.0712 114.536Z" fill="#4A4B4D"/>
<path d="M169.183 100.163C162.467 100.163 157.026 105.608 157.026 112.32C157.026 119.036 162.471 124.477 169.183 124.477C175.899 124.477 181.34 119.032 181.34 112.32C181.34 105.608 175.899 100.163 169.183 100.163ZM165.262 114.536C162.184 114.536 159.692 112.041 159.692 108.966C159.692 105.887 162.188 103.396 165.262 103.396C168.341 103.396 170.833 105.892 170.833 108.966C170.837 112.045 168.341 114.536 165.262 114.536Z" fill="#4A4B4D"/>
<path d="M148.719 179.354C148.719 169.892 141.049 156.123 131.587 156.123C122.126 156.123 114.456 169.892 114.456 179.354C114.456 188.815 122.126 189.194 131.587 189.194C141.049 189.194 148.719 188.815 148.719 179.354Z" fill="#4A4B4D"/>
<path d="M259.947 107.162C251.623 83.3274 229.813 69.2707 211.22 75.7616C208.024 76.874 204.87 78.8029 202.304 80.9152C202.158 80.7277 202.021 80.5361 201.875 80.3486C198.475 75.9824 194.834 71.8579 190.993 68.0583C185.718 62.834 165.171 46.7608 162.954 44.8319C155.272 38.1493 134.633 21.2804 129.792 -4C125.671 1.17024 123.509 7.77781 123.405 14.3729C123.292 21.4137 125.009 28.3838 128.221 34.583C122.651 31.2918 112.919 14.7895 110.869 2.99503C103.828 13.2438 105.957 34.8997 108.957 40.9365C100.753 37.5327 94.1166 22.8469 93.9749 16.7434C89.8545 21.9137 84.9968 39.0909 92.5376 51.9685C84.6593 56.5555 77.3393 62.4173 70.6943 69.2415C67.1905 72.8286 63.8742 76.6823 60.7621 80.7527C58.1624 78.5946 55.2169 76.8907 51.9548 75.7533C33.3611 69.2624 11.5511 83.3191 3.22704 107.154C-5.09699 130.989 3.23955 155.565 21.8291 162.06C24.4496 162.977 27.1326 163.489 29.8365 163.618C30.1323 158.085 30.803 152.474 31.8237 146.845C30.3489 146.72 28.8991 146.424 27.4659 145.92C15.8173 141.858 10.6095 126.464 15.8173 111.553C21.025 96.6342 34.6818 87.8352 46.3221 91.8973C48.176 92.5388 49.8675 93.4846 51.384 94.6553C51.2798 94.8428 51.1632 95.0219 51.0465 95.2135C41.5768 111.303 34.9151 129.464 31.7904 147.499C30.803 153.128 30.1698 158.748 29.9073 164.281C29.7823 166.564 29.7407 168.838 29.749 171.088C30.1281 229.748 73.6481 264.631 132.308 264.252C190.968 263.873 234.025 228.423 233.646 169.763C233.634 167.722 233.563 165.672 233.434 163.61C236.096 163.472 238.746 162.968 241.337 162.064C259.939 155.573 268.271 130.993 259.947 107.162ZM132.229 251.316C89.2338 251.591 54.2045 225.053 53.9837 192.036C53.8795 174.613 63.4868 158.869 78.91 147.841C73.3106 142.683 68.8611 135.688 66.4531 127.418C60.3288 106.312 69.8402 85.0022 87.709 79.807C105.578 74.6201 125.021 82.9316 131.154 104.029C131.208 104.208 131.25 104.396 131.3 104.575C131.354 104.396 131.396 104.208 131.437 104.029C137.299 82.8483 156.584 74.291 174.516 79.2487C192.447 84.2065 202.242 105.396 196.38 126.577C194.084 134.867 189.718 141.929 184.185 147.158C199.759 157.985 209.574 173.6 209.691 191.023C209.903 224.044 175.224 251.033 132.229 251.316ZM235.704 145.924C234.296 146.42 232.863 146.712 231.422 146.841C231.38 146.628 231.347 146.42 231.305 146.199C227.98 128.435 221.214 110.603 211.728 94.7928C213.215 93.6637 215.078 92.5222 216.848 91.9056C228.484 87.8436 242.145 96.6425 247.353 111.562C252.561 126.468 247.353 141.862 235.704 145.924Z" fill="#4A4B4D"/>
<path d="M175.453 189.194C177.611 192.194 178.807 195.448 178.807 198.852C178.807 213.829 155.88 225.973 127.604 225.973C110.211 225.973 94.854 221.374 85.6009 214.354C92.95 224.561 111.594 231.819 133.45 231.819C161.73 231.819 184.652 219.674 184.652 204.697C184.652 198.931 181.244 193.59 175.453 189.194Z" fill="#4A4B4D"/>
<path d="M189.431 146.841C176.899 146.841 164.608 144.941 155.714 141.629C142.653 136.767 135.054 123.473 135.391 106.066C133.829 105.712 132.616 105.496 131.516 105.496C130.425 105.496 129.221 105.708 127.875 105.962C128.142 123.452 120.543 136.759 107.473 141.629C98.5744 144.941 86.2841 146.841 73.7523 146.841C63.1785 146.841 53.3463 145.479 46.0638 143C31.278 137.971 27.3618 113.332 25.0204 98.6089L24.6496 96.2967C24.4704 95.1968 24.2371 95.0052 22.479 94.0011C20.7001 92.9846 18.017 91.4473 16.7422 87.9727C15.0174 83.2732 14.1841 70.7746 22.3457 67.725C23.7955 67.1834 26.5869 66.4626 34.0902 66.4626C46.0346 66.4626 62.516 68.2249 63.2118 68.2999C80.4473 69.8289 100.487 75.2783 112.373 81.6317L113.064 81.765C119.172 82.9524 125.375 83.5523 131.508 83.5523C137.641 83.5523 143.844 82.9524 149.943 81.7692C150.285 81.7025 150.593 81.6442 150.877 81.5859C162.771 75.2533 182.781 69.8248 199.958 68.2999C200.654 68.2249 217.136 66.4626 229.08 66.4626C236.583 66.4626 239.379 67.1834 240.825 67.725C248.986 70.7746 248.153 83.2732 246.428 87.9727C245.153 91.4473 242.47 92.9846 240.691 94.0011C238.933 95.0052 238.7 95.201 238.521 96.2967L238.15 98.6131C235.809 113.332 231.892 137.971 217.111 143C209.837 145.479 200.004 146.841 189.431 146.841ZM200.038 87.5394C183.331 87.5394 164.65 91.2764 156.584 96.2384C153.41 98.1881 151.247 101.109 151.072 103.675C150.085 117.998 153.389 126.272 161.171 128.964C168.812 131.605 180.411 133.247 191.434 133.247C199.713 133.247 206.991 132.322 211.924 130.647C217.136 128.872 220.919 118.307 220.919 105.525C220.919 96.4384 215.894 90.2891 213.336 89.1559C209.682 87.5394 205 87.5394 200.038 87.5394ZM63.1368 87.5394C58.1749 87.5394 53.4879 87.5394 49.8425 89.1517C47.2803 90.2849 42.2601 96.4342 42.2601 105.521C42.2601 118.302 46.043 128.868 51.2549 130.643C56.1835 132.322 63.4618 133.242 71.74 133.242C82.7637 133.242 94.3582 131.601 101.999 128.96C109.786 126.268 113.089 117.998 112.098 103.671C111.923 101.104 109.756 98.184 106.586 96.2342C98.5244 91.2806 79.8432 87.5394 63.1368 87.5394Z" fill="white"/>
<path d="M239.171 72.1578C232.267 69.579 200.467 73.0036 200.467 73.0036H200.475C182.194 74.6117 162.746 80.4611 152.506 86.0854C152.043 86.1771 151.502 86.2854 150.847 86.4104C137.995 88.9059 125.025 88.9059 112.173 86.4104C111.631 86.3062 111.16 86.2146 110.752 86.1312C100.532 80.4902 81.0305 74.6117 62.6993 72.9994H62.7076C62.7076 72.9994 30.9071 69.5706 24.0038 72.1537C19.4793 73.8451 19.9834 83.0649 21.1874 86.3395C22.7372 90.5682 28.3366 89.4975 29.3198 95.5343C31.3113 107.754 34.7359 134.147 47.5844 138.517C54.6627 140.925 64.0741 142.104 73.748 142.104C85.2342 142.104 97.087 140.437 105.815 137.188C119.868 131.955 123.28 117.182 123.059 106.121C123.013 103.775 124.68 101.746 126.988 101.309C128.492 101.025 129.996 100.759 131.512 100.759C133.079 100.759 134.633 101.042 136.187 101.342C138.491 101.784 140.161 103.804 140.12 106.154C139.907 117.215 143.323 131.963 157.363 137.192C166.092 140.442 177.944 142.108 189.43 142.108C199.104 142.108 208.516 140.929 215.594 138.521C228.443 134.151 231.867 107.754 233.859 95.5385C234.842 89.5017 240.441 90.5724 241.991 86.3437C243.191 83.0649 243.695 73.8493 239.171 72.1578ZM103.549 133.434C89.1587 138.409 63.3951 139.771 49.73 135.126C41.8184 132.434 37.5272 119.873 37.5272 105.525C37.5272 94.9969 43.3599 86.8478 47.9302 84.8272C52.4921 82.8108 57.7582 82.8108 63.1367 82.8108C79.9098 82.8108 99.6742 86.4354 109.065 92.2097C113.577 94.9844 116.539 99.2631 116.822 103.35C117.285 110.033 118.147 128.389 103.549 133.434ZM213.444 135.121C199.779 139.771 174.016 138.404 159.626 133.43C145.031 128.385 145.89 110.028 146.348 103.346C146.631 99.2547 149.593 94.976 154.105 92.2055C163.5 86.4312 183.265 82.8066 200.033 82.8066C205.416 82.8066 210.678 82.8066 215.24 84.823C219.81 86.8436 225.643 94.9885 225.643 105.521C225.647 119.873 221.356 132.43 213.444 135.121Z" fill="#FFAB00"/>
<path d="M363.638 137.218C361.708 140.298 358.886 142.744 355.158 144.542C351.429 146.34 346.964 147.238 341.762 147.238C333.863 147.238 327.357 145.345 322.251 141.558C317.145 137.77 314.367 132.369 313.918 125.37H334.055C334.247 127.75 334.983 129.511 336.273 130.667C337.555 131.824 339.132 132.399 340.996 132.399C342.668 132.399 343.965 131.979 344.901 131.146C345.829 130.314 346.301 129.12 346.301 127.58C346.301 125.524 345.373 123.933 343.508 122.813C341.644 121.693 338.69 120.455 334.644 119.099C330.341 117.626 326.79 116.174 323.997 114.767C321.205 113.352 318.795 111.237 316.769 108.408C314.736 105.586 313.726 101.953 313.726 97.5251C313.726 93.2883 314.817 89.641 317.005 86.5906C319.186 83.5401 322.177 81.2265 325.965 79.6497C329.752 78.0729 334.055 77.2919 338.874 77.2919C346.714 77.2919 352.955 79.1413 357.611 82.8328C362.268 86.5243 364.817 91.7115 365.274 98.3945H344.945C344.687 96.2724 344.032 94.703 342.971 93.6714C341.91 92.6473 340.517 92.1315 338.778 92.1315C337.297 92.1315 336.14 92.5147 335.308 93.2883C334.475 94.062 334.055 95.2188 334.055 96.7587C334.055 98.6892 334.969 100.192 336.803 101.29C338.631 102.381 341.512 103.604 345.424 104.952C349.727 106.492 353.293 108.003 356.123 109.484C358.945 110.965 361.391 113.116 363.447 115.938C365.503 118.768 366.527 122.43 366.527 126.924C366.527 130.697 365.562 134.138 363.638 137.218Z" fill="#FFAB00"/>
<path d="M378.279 70.594C380.335 68.7667 383.032 67.8457 386.37 67.8457C389.707 67.8457 392.375 68.7593 394.364 70.594C396.353 72.4214 397.348 74.7571 397.348 77.5792C397.348 80.2759 396.339 82.5232 394.312 84.3211C392.286 86.1189 389.641 87.0179 386.362 87.0179C383.024 87.0179 380.32 86.1189 378.272 84.3211C376.216 82.5232 375.192 80.2759 375.192 77.5792C375.199 74.7498 376.223 72.4214 378.279 70.594ZM395.72 92.5145V146.568H376.739V92.5145H395.72Z" fill="#FFAB00"/>
<path d="M495.206 98.1954C499.03 102.307 500.938 107.958 500.938 115.15V146.56H482.053V117.559C482.053 114.671 481.25 112.423 479.644 110.817C478.038 109.211 475.886 108.408 473.189 108.408C470.36 108.408 468.127 109.226 466.492 110.861C464.856 112.497 464.038 114.825 464.038 117.846V146.56H445.153V117.559C445.153 114.671 444.35 112.423 442.744 110.817C441.138 109.211 438.986 108.408 436.289 108.408C433.46 108.408 431.235 109.226 429.592 110.861C427.956 112.497 427.138 114.825 427.138 117.846V146.56H408.157V92.5072H427.138V100.796C428.678 98.0996 430.829 95.9628 433.592 94.386C436.356 92.8166 439.598 92.0282 443.326 92.0282C447.371 92.0282 450.937 92.9271 454.025 94.725C457.105 96.5228 459.514 99.0943 461.253 102.432C463.117 99.2859 465.622 96.766 468.768 94.8723C471.915 92.9787 475.415 92.0282 479.268 92.0282C486.062 92.0282 491.382 94.0839 495.206 98.1954Z" fill="#FFAB00"/>
<path d="M559.516 95.1597C562.986 97.3776 565.712 100.575 567.702 104.746C569.691 108.924 570.686 113.838 570.686 119.49C570.686 125.141 569.691 130.07 567.702 134.278C565.712 138.485 562.979 141.697 559.516 143.915C556.045 146.133 552.162 147.238 547.859 147.238C544.064 147.238 540.793 146.421 538.03 144.785C535.267 143.149 533.211 140.88 531.863 137.991V172.386H512.882V92.5145H531.863V101.091C533.211 98.2028 535.267 95.9334 538.03 94.2977C540.793 92.6619 544.064 91.844 547.859 91.844C552.162 91.8367 556.045 92.9419 559.516 95.1597ZM534.559 111.399C532.695 113.389 531.767 116.086 531.767 119.49C531.767 122.96 532.695 125.686 534.559 127.683C536.424 129.673 538.767 130.667 541.596 130.667C544.551 130.667 546.945 129.687 548.773 127.727C550.6 125.767 551.521 123.026 551.521 119.49C551.521 116.019 550.607 113.308 548.773 111.348C546.945 109.388 544.551 108.408 541.596 108.408C538.767 108.408 536.424 109.403 534.559 111.399Z" fill="#FFAB00"/>
<path d="M599.208 75.2657V146.568H580.228V75.2657H599.208Z" fill="#FFAB00"/>
<path d="M663.091 122.96H627.347C627.672 129.061 630.332 132.111 635.342 132.111C637.206 132.111 638.746 131.662 639.969 130.763C641.192 129.864 642.025 128.678 642.474 127.197H662.516C661.809 130.991 660.232 134.41 657.793 137.461C655.354 140.511 652.267 142.906 648.546 144.637C644.818 146.369 640.743 147.238 636.307 147.238C630.914 147.238 626.139 146.133 621.998 143.915C617.857 141.697 614.63 138.485 612.316 134.278C610.003 130.07 608.846 125.141 608.846 119.49C608.846 113.838 610.003 108.924 612.316 104.746C614.63 100.568 617.872 97.3776 622.05 95.1597C626.227 92.9419 630.98 91.8367 636.307 91.8367C641.701 91.8367 646.453 92.9272 650.565 95.1155C654.676 97.2965 657.874 100.413 660.151 104.458C662.428 108.504 663.57 113.197 663.57 118.524C663.577 119.873 663.415 121.354 663.091 122.96ZM642.091 108.798C640.551 107.384 638.621 106.676 636.307 106.676C633.802 106.676 631.761 107.384 630.192 108.798C628.615 110.213 627.701 112.298 627.443 115.061H644.302C644.368 112.298 643.631 110.206 642.091 108.798Z" fill="#FFAB00"/>
<path d="M752.409 78.6401V146.568H733.62V108.025L720.998 146.568H704.714L692.092 108.025V146.568H673.112V78.6401H696.329L713.092 122.768L729.375 78.6401H752.409Z" fill="#4A4B4D"/>
<path d="M804.87 95.1597C809.144 97.3776 812.496 100.59 814.943 104.797C817.382 109.005 818.605 113.905 818.605 119.49C818.605 125.141 817.382 130.056 814.943 134.234C812.504 138.411 809.144 141.624 804.87 143.871C800.597 146.118 795.763 147.246 790.37 147.246C784.976 147.246 780.12 146.126 775.817 143.871C771.514 141.624 768.14 138.411 765.701 134.234C763.262 130.056 762.039 125.148 762.039 119.49C762.039 113.838 763.255 108.924 765.701 104.746C768.14 100.568 771.514 97.3776 775.817 95.1597C780.12 92.9419 784.969 91.8367 790.37 91.8367C795.771 91.8367 800.597 92.9419 804.87 95.1597ZM783.819 111.105C782.088 113.035 781.218 115.828 781.218 119.49C781.218 123.218 782.088 126.04 783.819 127.971C785.551 129.901 787.739 130.859 790.37 130.859C792.941 130.859 795.093 129.879 796.824 127.919C798.556 125.959 799.425 123.152 799.425 119.49C799.425 115.828 798.556 113.035 796.824 111.105C795.093 109.174 792.934 108.216 790.37 108.216C787.739 108.216 785.551 109.182 783.819 111.105Z" fill="#4A4B4D"/>
<path d="M878.914 98.2472C882.443 102.388 884.212 108.025 884.212 115.157V146.568H865.423V117.567C865.423 114.42 864.605 111.967 862.969 110.198C861.333 108.43 859.13 107.546 856.367 107.546C853.538 107.546 851.29 108.46 849.625 110.294C847.952 112.122 847.12 114.649 847.12 117.861V146.575H828.139V92.5221H847.12V101.578C848.66 98.6893 850.907 96.3757 853.862 94.6367C856.816 92.9052 860.287 92.0358 864.266 92.0358C870.499 92.0284 875.384 94.0989 878.914 98.2472Z" fill="#4A4B4D"/>
<path d="M929.983 146.56L915.239 124.205V146.56H896.259V75.258H915.239V113.507L930.079 92.4997H952.147L931.14 119.578L952.721 146.553H929.983V146.56Z" fill="#4A4B4D"/>
<path d="M1011.39 122.96H975.651C975.975 129.061 978.635 132.111 983.646 132.111C985.51 132.111 987.05 131.662 988.273 130.763C989.489 129.864 990.329 128.678 990.778 127.197H1010.82C1010.11 130.991 1008.54 134.41 1006.1 137.461C1003.66 140.511 1000.57 142.906 996.85 144.637C993.121 146.369 989.047 147.238 984.611 147.238C979.217 147.238 974.443 146.133 970.302 143.915C966.161 141.697 962.934 138.485 960.62 134.278C958.306 130.07 957.15 125.141 957.15 119.49C957.15 113.838 958.306 108.924 960.62 104.746C962.934 100.568 966.176 97.3776 970.353 95.1597C974.531 92.9419 979.284 91.8367 984.611 91.8367C990.005 91.8367 994.757 92.9272 998.869 95.1155C1002.98 97.2965 1006.18 100.413 1008.45 104.458C1010.73 108.504 1011.87 113.197 1011.87 118.524C1011.88 119.873 1011.72 121.354 1011.39 122.96ZM990.395 108.798C988.855 107.384 986.925 106.676 984.611 106.676C982.106 106.676 980.065 107.384 978.495 108.798C976.919 110.213 976.005 112.298 975.747 115.061H992.606C992.672 112.298 991.935 110.206 990.395 108.798Z" fill="#4A4B4D"/>
<path d="M1036.74 92.5146L1048.3 122.769L1058.99 92.5146H1080L1045.8 172.386H1024.98L1038.19 144.254L1015.64 92.5146H1036.74Z" fill="#4A4B4D"/>
<path d="M316.637 204.13V216.184H313.726V187.286H322.376C325.626 187.286 328.057 188.038 329.656 189.541C331.255 191.044 332.051 193.107 332.051 195.73C332.051 198.412 331.226 200.483 329.568 201.942C327.917 203.4 325.515 204.137 322.376 204.137H316.637V204.13ZM327.505 200.136C328.595 199.112 329.148 197.646 329.148 195.73C329.148 193.763 328.603 192.267 327.505 191.243C326.414 190.219 324.624 189.703 322.133 189.703H316.637V201.676H322.133C324.616 201.669 326.407 201.161 327.505 200.136Z" fill="#595959"/>
<path d="M353.08 212.574C354.443 211.565 355.268 210.194 355.541 208.477H358.576C358.164 210.857 357.029 212.78 355.172 214.254C353.316 215.728 350.965 216.464 348.121 216.464C345.992 216.464 344.098 216.008 342.44 215.094C340.79 214.18 339.493 212.854 338.564 211.115C337.636 209.376 337.172 207.335 337.172 204.985C337.172 202.634 337.636 200.593 338.564 198.854C339.493 197.115 340.782 195.797 342.44 194.875C344.091 193.962 345.984 193.505 348.121 193.505C350.309 193.505 352.203 193.962 353.802 194.875C355.401 195.789 356.617 197.012 357.449 198.545C358.282 200.077 358.702 201.743 358.702 203.548C358.702 204.314 358.65 205.014 358.54 205.64H340.009C340.038 207.527 340.421 209.104 341.18 210.378C341.932 211.646 342.912 212.589 344.113 213.186C345.314 213.79 346.61 214.084 348.01 214.084C350.022 214.092 351.717 213.591 353.08 212.574ZM344.142 196.754C342.941 197.359 341.961 198.28 341.21 199.517C340.458 200.763 340.053 202.31 340.001 204.174H355.828C355.939 202.347 355.637 200.8 354.929 199.54C354.222 198.28 353.264 197.351 352.063 196.754C350.862 196.15 349.55 195.855 348.128 195.855C346.677 195.848 345.351 196.15 344.142 196.754Z" fill="#595959"/>
<path d="M371.574 194.706C373.026 193.829 374.787 193.394 376.864 193.394V196.511H375.921C373.762 196.511 371.972 197.093 370.55 198.25C369.128 199.414 368.42 201.308 368.42 203.931V216.192H365.51V193.807H368.42V198.442C369.069 196.821 370.123 195.575 371.574 194.706Z" fill="#595959"/>
<path d="M394.939 195.443C396.412 196.725 397.319 198.464 397.643 200.652H394.894C394.732 199.201 394.136 198.007 393.111 197.064C392.087 196.121 390.717 195.649 388.993 195.649C387.519 195.649 386.362 196.01 385.529 196.732C384.697 197.454 384.277 198.42 384.277 199.621C384.277 200.52 384.542 201.249 385.073 201.794C385.603 202.34 386.266 202.759 387.062 203.047C387.858 203.334 388.919 203.629 390.26 203.931C391.903 204.314 393.215 204.705 394.217 205.103C395.211 205.5 396.066 206.119 396.781 206.967C397.488 207.814 397.849 208.964 397.849 210.408C397.849 212.183 397.186 213.642 395.86 214.77C394.533 215.904 392.78 216.472 390.591 216.472C388.02 216.472 385.92 215.838 384.277 214.563C382.634 213.289 381.668 211.55 381.366 209.339H384.152C384.314 210.813 384.955 212.021 386.075 212.95C387.195 213.878 388.713 214.342 390.628 214.342C392.05 214.342 393.156 213.974 393.951 213.237C394.747 212.5 395.138 211.542 395.138 210.371C395.138 209.413 394.865 208.647 394.32 208.072C393.774 207.497 393.097 207.07 392.293 206.783C391.49 206.495 390.385 206.186 388.993 205.862C387.379 205.478 386.089 205.095 385.117 204.712C384.144 204.329 383.319 203.732 382.634 202.929C381.948 202.126 381.61 201.021 381.61 199.628C381.61 197.801 382.28 196.32 383.621 195.2C384.962 194.08 386.775 193.52 389.074 193.52C391.505 193.512 393.465 194.153 394.939 195.443Z" fill="#595959"/>
<path d="M420.58 194.89C422.26 195.804 423.579 197.13 424.537 198.869C425.495 200.608 425.974 202.649 425.974 204.999C425.974 207.35 425.495 209.384 424.537 211.108C423.579 212.832 422.26 214.158 420.58 215.087C418.9 216.015 416.992 216.479 414.862 216.479C412.733 216.479 410.817 216.015 409.123 215.087C407.428 214.158 406.094 212.824 405.129 211.093C404.156 209.354 403.67 207.328 403.67 205.007C403.67 202.656 404.156 200.615 405.129 198.876C406.102 197.138 407.428 195.819 409.123 194.898C410.817 193.984 412.733 193.527 414.862 193.527C416.992 193.512 418.9 193.969 420.58 194.89ZM410.766 196.998C409.506 197.653 408.496 198.655 407.73 200.011C406.964 201.367 406.58 203.025 406.58 204.992C406.58 206.959 406.964 208.617 407.73 209.951C408.496 211.292 409.506 212.287 410.766 212.942C412.026 213.598 413.389 213.922 414.862 213.922C416.314 213.922 417.655 213.598 418.9 212.942C420.145 212.287 421.147 211.292 421.914 209.951C422.68 208.61 423.063 206.959 423.063 204.992C423.063 203.025 422.68 201.367 421.914 200.011C421.147 198.655 420.145 197.653 418.9 196.998C417.655 196.342 416.314 196.01 414.862 196.01C413.389 196.018 412.018 196.342 410.766 196.998Z" fill="#595959"/>
<path d="M450.304 195.87C451.932 197.521 452.743 199.952 452.743 203.15V216.184H449.913V203.349C449.913 200.917 449.302 199.053 448.071 197.756C446.841 196.46 445.161 195.811 443.031 195.811C440.791 195.811 439.008 196.526 437.682 197.963C436.356 199.399 435.692 201.507 435.692 204.299V216.184H432.782V193.8H435.692V199.296C436.267 197.381 437.306 195.922 438.809 194.912C440.312 193.903 442.036 193.394 443.974 193.394C446.568 193.387 448.675 194.22 450.304 195.87Z" fill="#595959"/>
<path d="M475.68 195.273C477.279 196.445 478.377 198.007 478.981 199.945V193.792H481.81V216.177H478.981V210.025C478.377 211.962 477.279 213.524 475.68 214.696C474.081 215.868 472.15 216.457 469.881 216.457C467.855 216.457 466.05 215.993 464.451 215.064C462.852 214.136 461.606 212.802 460.722 211.071C459.831 209.332 459.389 207.306 459.389 204.985C459.389 202.634 459.831 200.593 460.722 198.854C461.606 197.115 462.844 195.797 464.436 194.875C466.02 193.962 467.84 193.505 469.888 193.505C472.143 193.512 474.081 194.102 475.68 195.273ZM464.569 198.456C463.051 200.055 462.292 202.236 462.292 204.992C462.292 207.755 463.051 209.936 464.569 211.535C466.086 213.134 468.098 213.93 470.618 213.93C472.202 213.93 473.631 213.561 474.899 212.824C476.166 212.088 477.168 211.041 477.89 209.686C478.612 208.33 478.973 206.768 478.973 204.992C478.973 203.216 478.612 201.654 477.89 200.298C477.168 198.943 476.166 197.904 474.899 197.16C473.631 196.423 472.202 196.054 470.618 196.054C468.098 196.054 466.086 196.858 464.569 198.456Z" fill="#595959"/>
<path d="M492.59 185.849V216.184H489.679V185.849H492.59Z" fill="#595959"/>
<path d="M528.458 187.279V189.615H515.667V200.645H526.734V202.899H515.667V216.184H512.757V187.286H528.458V187.279Z" fill="#595959"/>
<path d="M534.67 185.724C535.068 185.37 535.576 185.194 536.21 185.194C536.836 185.194 537.344 185.37 537.728 185.724C538.111 186.078 538.302 186.557 538.302 187.161C538.302 187.736 538.111 188.2 537.728 188.553C537.344 188.907 536.836 189.084 536.21 189.084C535.583 189.084 535.068 188.907 534.67 188.553C534.272 188.2 534.073 187.736 534.073 187.161C534.073 186.557 534.272 186.078 534.67 185.724ZM537.639 193.8V216.184H534.729V193.8H537.639Z" fill="#595959"/>
<path d="M563.038 195.87C564.666 197.521 565.476 199.952 565.476 203.15V216.184H562.647V203.349C562.647 200.917 562.035 199.053 560.805 197.756C559.574 196.46 557.894 195.811 555.765 195.811C553.525 195.811 551.742 196.526 550.416 197.963C549.089 199.399 548.426 201.507 548.426 204.299V216.184H545.516V193.8H548.426V199.296C549.001 197.381 550.04 195.922 551.543 194.912C553.046 193.903 554.77 193.394 556.708 193.394C559.302 193.387 561.409 194.22 563.038 195.87Z" fill="#595959"/>
<path d="M588.414 195.273C590.013 196.445 591.111 198.007 591.715 199.945V193.792H594.544V216.177H591.715V210.025C591.111 211.962 590.013 213.524 588.414 214.696C586.815 215.868 584.884 216.457 582.615 216.457C580.589 216.457 578.784 215.993 577.185 215.064C575.586 214.136 574.341 212.802 573.456 211.071C572.565 209.332 572.123 207.306 572.123 204.985C572.123 202.634 572.565 200.593 573.456 198.854C574.341 197.115 575.578 195.797 577.17 194.875C578.754 193.962 580.574 193.505 582.622 193.505C584.877 193.512 586.815 194.102 588.414 195.273ZM577.303 198.456C575.785 200.055 575.026 202.236 575.026 204.992C575.026 207.755 575.785 209.936 577.303 211.535C578.82 213.134 580.832 213.93 583.352 213.93C584.936 213.93 586.365 213.561 587.633 212.824C588.9 212.088 589.902 211.041 590.624 209.686C591.346 208.33 591.707 206.768 591.707 204.992C591.707 203.216 591.346 201.654 590.624 200.298C589.902 198.943 588.9 197.904 587.633 197.16C586.365 196.423 584.936 196.054 583.352 196.054C580.832 196.054 578.82 196.858 577.303 198.456Z" fill="#595959"/>
<path d="M619.935 195.87C621.563 197.521 622.374 199.952 622.374 203.15V216.184H619.544V203.349C619.544 200.917 618.933 199.053 617.702 197.756C616.472 196.46 614.792 195.811 612.663 195.811C610.423 195.811 608.639 196.526 607.313 197.963C605.987 199.399 605.324 201.507 605.324 204.299V216.184H602.413V193.8H605.324V199.296C605.898 197.381 606.937 195.922 608.441 194.912C609.944 193.903 611.668 193.394 613.606 193.394C616.199 193.387 618.314 194.22 619.935 195.87Z" fill="#595959"/>
<path d="M647.035 195.767C648.907 197.27 650.049 199.267 650.462 201.75H647.47C647.168 199.974 646.336 198.574 644.972 197.55C643.609 196.526 641.922 196.01 639.933 196.01C638.481 196.01 637.147 196.342 635.939 196.998C634.723 197.653 633.751 198.655 633.028 200.011C632.306 201.367 631.945 203.025 631.945 204.992C631.945 206.959 632.306 208.617 633.028 209.973C633.751 211.329 634.723 212.331 635.939 212.987C637.155 213.642 638.488 213.967 639.933 213.967C641.929 213.967 643.609 213.451 644.972 212.427C646.336 211.402 647.175 210.002 647.47 208.227H650.462C650.049 210.717 648.907 212.707 647.035 214.21C645.164 215.713 642.806 216.464 639.962 216.464C637.833 216.464 635.939 216.008 634.281 215.094C632.623 214.18 631.334 212.854 630.405 211.115C629.477 209.376 629.013 207.335 629.013 204.985C629.013 202.634 629.477 200.593 630.405 198.854C631.334 197.115 632.623 195.797 634.281 194.875C635.932 193.962 637.825 193.505 639.962 193.505C642.806 193.512 645.164 194.264 647.035 195.767Z" fill="#595959"/>
<path d="M672.102 212.574C673.465 211.565 674.291 210.194 674.563 208.477H677.599C677.186 210.857 676.052 212.78 674.195 214.254C672.338 215.728 669.988 216.464 667.143 216.464C665.014 216.464 663.12 216.008 661.462 215.094C659.805 214.18 658.515 212.854 657.587 211.115C656.658 209.376 656.194 207.335 656.194 204.985C656.194 202.634 656.658 200.593 657.587 198.854C658.515 197.115 659.805 195.797 661.462 194.875C663.113 193.962 665.007 193.505 667.143 193.505C669.332 193.505 671.225 193.962 672.824 194.875C674.423 195.789 675.639 197.012 676.472 198.545C677.304 200.077 677.724 201.743 677.724 203.548C677.724 204.314 677.665 205.014 677.562 205.64H659.024C659.053 207.527 659.436 209.104 660.195 210.378C660.947 211.646 661.919 212.589 663.128 213.186C664.329 213.79 665.625 214.084 667.025 214.084C669.044 214.092 670.739 213.591 672.102 212.574ZM663.165 196.754C661.963 197.359 660.984 198.28 660.232 199.517C659.48 200.763 659.075 202.31 659.024 204.174H674.851C674.961 202.347 674.659 200.8 673.952 199.54C673.244 198.28 672.286 197.351 671.085 196.754C669.884 196.15 668.573 195.855 667.151 195.855C665.692 195.848 664.366 196.15 663.165 196.754Z" fill="#595959"/>
<path d="M697.154 195.443C698.628 196.725 699.534 198.464 699.858 200.652H697.11C696.948 199.201 696.351 198.007 695.327 197.064C694.303 196.121 692.932 195.649 691.208 195.649C689.734 195.649 688.578 196.01 687.745 196.732C686.912 197.454 686.492 198.42 686.492 199.621C686.492 200.52 686.758 201.249 687.288 201.794C687.819 202.34 688.482 202.759 689.278 203.047C690.073 203.334 691.134 203.629 692.475 203.931C694.118 204.314 695.43 204.705 696.432 205.103C697.427 205.5 698.282 206.119 698.996 206.967C699.704 207.814 700.065 208.964 700.065 210.408C700.065 212.183 699.401 213.642 698.075 214.77C696.749 215.904 694.995 216.472 692.807 216.472C690.235 216.472 688.135 215.838 686.492 214.563C684.849 213.289 683.884 211.55 683.582 209.339H686.367C686.529 210.813 687.17 212.021 688.29 212.95C689.41 213.878 690.928 214.342 692.844 214.342C694.266 214.342 695.371 213.974 696.167 213.237C696.963 212.5 697.353 211.542 697.353 210.371C697.353 209.413 697.08 208.647 696.535 208.072C695.99 207.497 695.312 207.07 694.509 206.783C693.706 206.495 692.601 206.186 691.208 205.862C689.594 205.478 688.305 205.095 687.332 204.712C686.36 204.329 685.534 203.732 684.849 202.929C684.164 202.126 683.825 201.021 683.825 199.628C683.825 197.801 684.496 196.32 685.837 195.2C687.178 194.08 688.99 193.52 691.289 193.52C693.721 193.512 695.673 194.153 697.154 195.443Z" fill="#595959"/>
<path d="M747.251 187.898V216.184H744.384V192.488L734.585 216.184H732.006L722.169 192.569V216.184H719.259V187.898H722.663L733.325 212.618L743.898 187.898H747.251Z" fill="#595959"/>
<path d="M770.387 195.273C771.986 196.445 773.084 198.007 773.688 199.945V193.792H776.517V216.177H773.688V210.025C773.084 211.962 771.986 213.524 770.387 214.696C768.788 215.868 766.858 216.457 764.588 216.457C762.562 216.457 760.757 215.993 759.158 215.064C757.559 214.136 756.314 212.802 755.43 211.071C754.545 209.339 754.096 207.306 754.096 204.985C754.096 202.634 754.538 200.593 755.43 198.854C756.321 197.115 757.552 195.797 759.143 194.875C760.727 193.962 762.547 193.505 764.596 193.505C766.858 193.512 768.788 194.102 770.387 195.273ZM759.276 198.456C757.758 200.055 756.999 202.236 756.999 204.992C756.999 207.755 757.758 209.936 759.276 211.535C760.794 213.134 762.805 213.93 765.325 213.93C766.909 213.93 768.339 213.561 769.606 212.824C770.873 212.088 771.875 211.041 772.598 209.686C773.32 208.33 773.681 206.768 773.681 204.992C773.681 203.216 773.32 201.654 772.598 200.298C771.875 198.943 770.873 197.904 769.606 197.16C768.339 196.423 766.909 196.054 765.325 196.054C762.812 196.054 760.794 196.858 759.276 198.456Z" fill="#595959"/>
<path d="M799.617 195.273C801.216 196.445 802.299 198.007 802.874 199.945V185.842H805.74V216.177H802.874V210.025C802.299 211.962 801.216 213.524 799.617 214.696C798.018 215.868 796.087 216.457 793.818 216.457C791.792 216.457 789.987 215.993 788.388 215.064C786.789 214.136 785.544 212.802 784.659 211.071C783.775 209.339 783.326 207.306 783.326 204.985C783.326 202.634 783.768 200.593 784.659 198.854C785.551 197.115 786.781 195.797 788.373 194.875C789.957 193.962 791.777 193.505 793.825 193.505C796.087 193.512 798.018 194.102 799.617 195.273ZM788.506 198.456C786.988 200.055 786.229 202.236 786.229 204.992C786.229 207.755 786.988 209.936 788.506 211.535C790.023 213.134 792.035 213.93 794.555 213.93C796.139 213.93 797.568 213.561 798.836 212.824C800.103 212.088 801.105 211.041 801.827 209.686C802.549 208.33 802.91 206.768 802.91 204.992C802.91 203.216 802.549 201.654 801.827 200.299C801.105 198.943 800.103 197.904 798.836 197.16C797.568 196.423 796.139 196.054 794.555 196.054C792.042 196.054 790.023 196.858 788.506 198.456Z" fill="#595959"/>
<path d="M828.456 212.574C829.819 211.565 830.644 210.194 830.917 208.477H833.953C833.54 210.857 832.405 212.78 830.549 214.254C828.692 215.728 826.341 216.464 823.497 216.464C821.368 216.464 819.474 216.008 817.816 215.094C816.158 214.18 814.869 212.854 813.941 211.115C813.012 209.376 812.548 207.335 812.548 204.985C812.548 202.634 813.012 200.593 813.941 198.854C814.869 197.115 816.158 195.797 817.816 194.875C819.467 193.962 821.36 193.505 823.497 193.505C825.686 193.505 827.579 193.962 829.178 194.875C830.777 195.789 831.993 197.012 832.825 198.545C833.658 200.077 834.078 201.743 834.078 203.548C834.078 204.314 834.019 205.014 833.916 205.64H815.377C815.407 207.527 815.79 209.104 816.549 210.378C817.3 211.646 818.273 212.589 819.482 213.186C820.683 213.79 821.979 214.084 823.379 214.084C825.398 214.092 827.093 213.591 828.456 212.574ZM819.518 196.754C818.317 197.359 817.337 198.28 816.586 199.517C815.834 200.763 815.429 202.31 815.377 204.174H831.204C831.315 202.347 831.013 200.8 830.305 199.54C829.598 198.28 828.64 197.351 827.439 196.754C826.238 196.15 824.927 195.855 823.505 195.855C822.046 195.848 820.727 196.15 819.518 196.754Z" fill="#595959"/>
<path d="M856.087 189.622V200.527H867.36V202.781H856.087V213.812H868.591V216.192H853.176V187.293H868.591V189.629H856.087V189.622Z" fill="#595959"/>
<path d="M890.46 195.273C892.059 196.445 893.157 198.007 893.761 199.945V193.792H896.59V216.177H893.761V210.025C893.157 211.962 892.059 213.524 890.46 214.696C888.861 215.868 886.93 216.457 884.661 216.457C882.635 216.457 880.829 215.993 879.231 215.064C877.632 214.136 876.386 212.802 875.502 211.071C874.618 209.339 874.169 207.306 874.169 204.985C874.169 202.634 874.611 200.593 875.502 198.854C876.394 197.115 877.624 195.797 879.216 194.875C880.8 193.962 882.62 193.505 884.668 193.505C886.93 193.512 888.861 194.102 890.46 195.273ZM879.356 198.456C877.838 200.055 877.079 202.236 877.079 204.992C877.079 207.755 877.838 209.936 879.356 211.535C880.874 213.134 882.885 213.93 885.405 213.93C886.989 213.93 888.419 213.561 889.686 212.824C890.953 212.088 891.955 211.041 892.678 209.686C893.4 208.33 893.761 206.768 893.761 204.992C893.761 203.216 893.4 201.654 892.678 200.298C891.955 198.943 890.953 197.904 889.686 197.16C888.419 196.423 886.989 196.054 885.405 196.054C882.885 196.054 880.866 196.858 879.356 198.456Z" fill="#595959"/>
<path d="M917.089 195.443C918.562 196.725 919.468 198.464 919.793 200.652H917.044C916.882 199.201 916.285 198.007 915.261 197.064C914.237 196.121 912.867 195.649 911.142 195.649C909.669 195.649 908.512 196.01 907.679 196.732C906.847 197.454 906.427 198.42 906.427 199.621C906.427 200.52 906.692 201.249 907.222 201.794C907.753 202.34 908.416 202.759 909.212 203.047C910.008 203.334 911.069 203.629 912.41 203.931C914.053 204.314 915.364 204.705 916.366 205.103C917.361 205.5 918.216 206.119 918.931 206.967C919.638 207.814 919.999 208.964 919.999 210.408C919.999 212.183 919.336 213.642 918.01 214.77C916.683 215.904 914.93 216.472 912.741 216.472C910.17 216.472 908.07 215.838 906.427 214.563C904.784 213.289 903.818 211.55 903.516 209.339H906.301C906.464 210.813 907.105 212.021 908.225 212.95C909.345 213.878 910.862 214.342 912.778 214.342C914.2 214.342 915.305 213.974 916.101 213.237C916.897 212.5 917.287 211.542 917.287 210.371C917.287 209.413 917.015 208.647 916.47 208.072C915.924 207.497 915.246 207.07 914.443 206.783C913.64 206.495 912.535 206.186 911.142 205.862C909.529 205.478 908.239 205.095 907.267 204.712C906.294 204.329 905.469 203.732 904.784 202.929C904.098 202.126 903.759 201.021 903.759 199.628C903.759 197.801 904.43 196.32 905.771 195.2C907.112 194.08 908.925 193.52 911.223 193.52C913.662 193.512 915.615 194.153 917.089 195.443Z" fill="#595959"/>
<path d="M927.5 193.8L935.288 212.449L942.465 193.8H945.662L932.503 226.758H929.224L933.733 215.934L924.302 193.8H927.5Z" fill="#595959"/>
</g>
<defs>
<clipPath id="clip0">
<rect width="1080" height="264" fill="white"/>
</clipPath>
</defs>
</svg>
